2022-08-21 17:08:47,759 [ 1] INFO  Unity: LoadingManager start
2022-08-21 17:08:54,634 [ 1] INFO  Unity: OnUserLogin::user:1 psw:1
2022-08-21 17:08:54,636 [ 1] INFO  Unity: ConnectToServer() Start 
2022-08-21 17:08:54,637 [ 1] INFO  Unity: DoConnect
2022-08-21 17:08:54,638 [ 1] INFO  Unity: NetClient.DoConnect on 127.0.0.1:8000
2022-08-21 17:08:54,641 [ 1] INFO  Unity: Connect[0] to server 127.0.0.1:8000

2022-08-21 17:08:54,643 [ 1] INFO  Unity: LoadingMesager::OnGameServerConnect :0 reason:Success
2022-08-21 17:08:54,746 [ 1] INFO  Unity: OnUserLogin:Success [None]
2022-08-21 17:08:54,759 [ 1] ERROR Unity: Message handler exception:, Object reference not set to an instance of an object, Assembly-CSharp,   at UILogin.OnLogin (Result result, System.String message) [0x00033] in E:\A_World\myrpg\Src\Client\Assets\Scripts\UI\UILogin.cs:48 
  at Services.UserService.OnUserLogin (System.Object sender, SkillBridge.Message.UserLoginResponse response) [0x00046] in E:\A_World\myrpg\Src\Client\Assets\Scripts\Services\UserService.cs:137 
  at Network.MessageDistributer`1[System.Object].RaiseEvent[UserLoginResponse] (System.Object sender, SkillBridge.Message.UserLoginResponse msg) [0x00044] in D:\Projects\ExtremeWorld\project-z\Src\Lib\Common\Network\MessageDistributer.cs:105 
2022-08-21 17:08:54,760 [ 1] FATAL Unity: <log4net.Error>Exception during StringFormat: Input string was not in a correct format. <format>{0
{1}</format><args>{NullReferenceException: Object reference not set to an instance of an object, UILogin.OnLogin (Result result, System.String message) (at Assets/Scripts/UI/UILogin.cs:48)
Services.UserService.OnUserLogin (System.Object sender, SkillBridge.Message.UserLoginResponse response) (at Assets/Scripts/Services/UserService.cs:137)
Network.MessageDistributer`1[System.Object].RaiseEvent[UserLoginResponse] (System.Object sender, SkillBridge.Message.UserLoginResponse msg) (at D:/Projects/ExtremeWorld/project-z/Src/Lib/Common/Network/MessageDistributer.cs:105)
}</args></log4net.Error>
2022-08-21 17:09:04,314 [ 1] INFO  Unity: OnDestroy NetworkManager.
2022-08-21 17:09:04,315 [ 1] WARN  Unity: CloseConnection(), errorCode: 1007
UnityEngine.Debug:LogWarning(Object)
Network.NetClient:CloseConnection(Int32) (at Assets/Scripts/Network/NetClient.cs:180)
Network.NetClient:OnDestroy() (at Assets/Scripts/Network/NetClient.cs:175)

