2022-08-21 16:14:01,763 [ 1] INFO  Unity: LoadingManager start
2022-08-21 16:14:13,167 [ 1] INFO  Unity: 账号登录请求::user:test1 psw:123456
2022-08-21 16:14:13,169 [ 1] INFO  Unity: ConnectToServer() Start 
2022-08-21 16:14:13,170 [ 1] INFO  Unity: DoConnect
2022-08-21 16:14:13,171 [ 1] INFO  Unity: NetClient.DoConnect on 127.0.0.1:8000
2022-08-21 16:14:13,173 [ 1] INFO  Unity: Connect[0] to server 127.0.0.1:8000

2022-08-21 16:14:13,176 [ 1] INFO  Unity: LoadingMesager::OnGameServerConnect :0 reason:Success
2022-08-21 16:14:29,345 [ 1] INFO  Unity: 账号登录请求::user:test1 psw:12
2022-08-21 16:21:49,132 [ 1] INFO  Unity: ProcessReceive exception:System.Net.Sockets.SocketException: 远程主机强迫关闭了一个现有的连接。

  at System.Net.Sockets.Socket.Receive (System.Byte[] buffer, Int32 offset, Int32 size, SocketFlags flags) [0x00000] in <filename unknown>:0 
  at Network.NetClient.ProcessRecv () [0x00084] in E:\A_World\myrpg\Src\Client\Assets\Scripts\Network\NetClient.cs:340 

2022-08-21 16:21:49,135 [ 1] WARN  Unity: CloseConnection(), errorCode: 1001
UnityEngine.Debug:LogWarning(Object)
Network.NetClient:CloseConnection(Int32) (at Assets/Scripts/Network/NetClient.cs:180)
Network.NetClient:ProcessRecv() (at Assets/Scripts/Network/NetClient.cs:354)
Network.NetClient:Update() (at Assets/Scripts/Network/NetClient.cs:434)

2022-08-21 16:21:49,163 [ 1] INFO  Unity: DoConnect
2022-08-21 16:21:49,163 [ 1] INFO  Unity: NetClient.DoConnect on 127.0.0.1:8000
2022-08-21 16:21:49,165 [ 1] INFO  Unity: Connect[0] to server 127.0.0.1:8000

2022-08-21 16:21:51,216 [ 1] WARN  Unity: CloseConnection(), errorCode: 1005
UnityEngine.Debug:LogWarning(Object)
Network.NetClient:CloseConnection(Int32) (at Assets/Scripts/Network/NetClient.cs:180)
Network.NetClient:DoConnect() (at Assets/Scripts/Network/NetClient.cs:274)
Network.NetClient:Connect(Int32) (at Assets/Scripts/Network/NetClient.cs:169)
Network.NetClient:KeepConnect() (at Assets/Scripts/Network/NetClient.cs:315)
Network.NetClient:Update() (at Assets/Scripts/Network/NetClient.cs:432)

2022-08-21 16:21:51,217 [ 1] ERROR Unity: DoConnect SocketException:[10061,ConnectionRefused,10061]System.Net.Sockets.SocketException: 由于目标计算机积极拒绝，无法连接。

  at System.Net.Sockets.Socket.Connect (System.Net.EndPoint remoteEP, Boolean requireSocketPolicy) [0x00000] in <filename unknown>:0 
  at System.Net.Sockets.Socket+Worker.Connect () [0x00000] in <filename unknown>:0  
UnityEngine.Debug:LogErrorFormat(String, Object[])
Network.NetClient:DoConnect() (at Assets/Scripts/Network/NetClient.cs:276)
Network.NetClient:Connect(Int32) (at Assets/Scripts/Network/NetClient.cs:169)
Network.NetClient:KeepConnect() (at Assets/Scripts/Network/NetClient.cs:315)
Network.NetClient:Update() (at Assets/Scripts/Network/NetClient.cs:432)

2022-08-21 16:21:51,251 [ 1] INFO  Unity: DoConnect
2022-08-21 16:21:51,251 [ 1] INFO  Unity: NetClient.DoConnect on 127.0.0.1:8000
2022-08-21 16:21:51,253 [ 1] INFO  Unity: Connect[1] to server 127.0.0.1:8000

2022-08-21 16:21:53,282 [ 1] WARN  Unity: CloseConnection(), errorCode: 1005
UnityEngine.Debug:LogWarning(Object)
Network.NetClient:CloseConnection(Int32) (at Assets/Scripts/Network/NetClient.cs:180)
Network.NetClient:DoConnect() (at Assets/Scripts/Network/NetClient.cs:274)
Network.NetClient:Connect(Int32) (at Assets/Scripts/Network/NetClient.cs:169)
Network.NetClient:KeepConnect() (at Assets/Scripts/Network/NetClient.cs:315)
Network.NetClient:Update() (at Assets/Scripts/Network/NetClient.cs:432)

2022-08-21 16:21:53,284 [ 1] ERROR Unity: DoConnect SocketException:[10061,ConnectionRefused,10061]System.Net.Sockets.SocketException: 由于目标计算机积极拒绝，无法连接。

  at System.Net.Sockets.Socket.Connect (System.Net.EndPoint remoteEP, Boolean requireSocketPolicy) [0x00000] in <filename unknown>:0 
  at System.Net.Sockets.Socket+Worker.Connect () [0x00000] in <filename unknown>:0  
UnityEngine.Debug:LogErrorFormat(String, Object[])
Network.NetClient:DoConnect() (at Assets/Scripts/Network/NetClient.cs:276)
Network.NetClient:Connect(Int32) (at Assets/Scripts/Network/NetClient.cs:169)
Network.NetClient:KeepConnect() (at Assets/Scripts/Network/NetClient.cs:315)
Network.NetClient:Update() (at Assets/Scripts/Network/NetClient.cs:432)

2022-08-21 16:21:53,307 [ 1] INFO  Unity: DoConnect
2022-08-21 16:21:53,308 [ 1] INFO  Unity: NetClient.DoConnect on 127.0.0.1:8000
2022-08-21 16:21:53,309 [ 1] INFO  Unity: Connect[2] to server 127.0.0.1:8000

2022-08-21 16:21:55,359 [ 1] WARN  Unity: CloseConnection(), errorCode: 1005
UnityEngine.Debug:LogWarning(Object)
Network.NetClient:CloseConnection(Int32) (at Assets/Scripts/Network/NetClient.cs:180)
Network.NetClient:DoConnect() (at Assets/Scripts/Network/NetClient.cs:274)
Network.NetClient:Connect(Int32) (at Assets/Scripts/Network/NetClient.cs:169)
Network.NetClient:KeepConnect() (at Assets/Scripts/Network/NetClient.cs:315)
Network.NetClient:Update() (at Assets/Scripts/Network/NetClient.cs:432)

2022-08-21 16:21:55,360 [ 1] ERROR Unity: DoConnect SocketException:[10061,ConnectionRefused,10061]System.Net.Sockets.SocketException: 由于目标计算机积极拒绝，无法连接。

  at System.Net.Sockets.Socket.Connect (System.Net.EndPoint remoteEP, Boolean requireSocketPolicy) [0x00000] in <filename unknown>:0 
  at System.Net.Sockets.Socket+Worker.Connect () [0x00000] in <filename unknown>:0  
UnityEngine.Debug:LogErrorFormat(String, Object[])
Network.NetClient:DoConnect() (at Assets/Scripts/Network/NetClient.cs:276)
Network.NetClient:Connect(Int32) (at Assets/Scripts/Network/NetClient.cs:169)
Network.NetClient:KeepConnect() (at Assets/Scripts/Network/NetClient.cs:315)
Network.NetClient:Update() (at Assets/Scripts/Network/NetClient.cs:432)

2022-08-21 16:21:55,360 [ 1] INFO  Unity: LoadingMesager::OnGameServerConnect :1 reason:Cannot connect to server
2022-08-21 16:25:18,097 [ 1] INFO  Unity: OnDestroy NetworkManager.
2022-08-21 16:25:18,097 [ 1] WARN  Unity: CloseConnection(), errorCode: 1007
UnityEngine.Debug:LogWarning(Object)
Network.NetClient:CloseConnection(Int32) (at Assets/Scripts/Network/NetClient.cs:180)
Network.NetClient:OnDestroy() (at Assets/Scripts/Network/NetClient.cs:175)

